%YAML 1.1
%TAG !u! tag:unity3d.com,2011:
--- !u!114 &11400000
MonoBehaviour:
  m_ObjectHideFlags: 0
  m_CorrespondingSourceObject: {fileID: 0}
  m_PrefabInstance: {fileID: 0}
  m_PrefabAsset: {fileID: 0}
  m_GameObject: {fileID: 0}
  m_Enabled: 1
  m_EditorHideFlags: 0
  m_Script: {fileID: 11500000, guid: 2b31c7582b08e6f4a800f8b7a028af3e, type: 3}
  m_Name: ResourceAssets
  m_EditorClassIdentifier: 
  _listHUD:
  - type: 4
    prefab: {fileID: 2775410398313951021, guid: f72e1e8cf5818724aa809c6eaa7751aa,
      type: 3}
  - type: 6
    prefab: {fileID: 8060752009037701546, guid: 534ed221fff0c444083b69609a721399,
      type: 3}
